{
  "$schema": "https://docs.renovatebot.com/renovate-schema.json",
  "extends": [
    "config:recommended",
    "docker:pinDigests",
    ":automergeMinor",
    ":automergePr",
    ":disableDigestUpdates",
    ":automergeRequireAllStatusChecks"
  ]
}
